<?xml version="1.0" encoding="UTF-8" standalone="no"?>
<!-- Generator: Adobe Illustrator 12.0.0, SVG Export Plug-In . SVG Version: 6.00 Build 51448)  -->
<svg
    xmlns:inkscape="http://www.inkscape.org/namespaces/inkscape"
    xmlns:rdf="http://www.w3.org/1999/02/22-rdf-syntax-ns#"
    xmlns="http://www.w3.org/2000/svg"
    xmlns:cc="http://web.resource.org/cc/"
    xmlns:dc="http://purl.org/dc/elements/1.1/"
    xmlns:sodipodi="http://inkscape.sourceforge.net/DTD/sodipodi-0.dtd"
    xmlns:svg="http://www.w3.org/2000/svg"
    xmlns:ns1="http://sozi.baierouge.fr"
    xmlns:xlink="http://www.w3.org/1999/xlink"
    id="Layer_1"
    style="enable-background:new 0 0 372.005 415.474"
    space="preserve"
    sodipodi:docname="sport_stacco01.svg"
    viewBox="0 0 372.005 415.474"
    sodipodi:version="0.32"
    version="1.1"
    inkscape:version="0.42"
    sodipodi:docbase="F:\openclip\wmf\01"
  >
  <sodipodi:namedview
      id="base"
      bordercolor="#666666"
      inkscape:pageshadow="2"
      inkscape:window-width="787"
      pagecolor="#ffffff"
      inkscape:zoom="0.86648021"
      inkscape:window-x="88"
      borderopacity="1.0"
      inkscape:current-layer="Layer_1"
      inkscape:cx="186.00250"
      inkscape:cy="207.73700"
      inkscape:window-y="116"
      inkscape:window-height="510"
      inkscape:pageopacity="0.0"
  />
  <path
      id="path3"
      d="m349.37 313.62c3.847 6.207 20.467-7.047 22.634 6.467-21.052 15.55-15.459 57.809-54.965 54.965-8.15-9.084-19.435-15.068-19.399-32.333-9.119 4.204-27.775 11.093-35.565 6.467-6.145 4.269 16.552 6.918 9.699 22.632-20.144 14.617-57.813-0.129-67.896-16.166-15.942 3.427-33.821 4.948-48.5 9.7-1.487 15.067 6.369 20.758 0 32.332-26.319 12.353-41.902-8.308-45.265-29.099-9.054 1.715-16.781 4.752-25.866 6.467 11.154 47.819-54.609 55.902-51.731 9.699-19.238-0.161-34.37 9.021-32.333-16.166 5.367-5.431 19.011-2.586 29.1-3.233 6.045-14.452 10.443-30.522 25.865-35.564 22.892 1.906 18.656 30.907 51.731 22.632 8.438-77.821-6.855-195.67 74.363-210.16-11.64-48.659 27.838-70.548 58.199-48.498 1.617 14.29 7.37 35.954-3.233 51.731 47.785 30.909 40.51 116.85 54.965 181.06 7.048-12.383 9.308-29.519 19.398-38.798h25.866c3.51 9.4 13.7 12.16 12.92 25.86zm-12.93 51.73c19.075-17.716 17.489-73.23-19.398-71.13-8.538 5.434-13.71 14.29-12.934 29.099 9.15 0.549 22.178-2.782 22.632 6.467-0.582 10.183-10.607 10.927-22.632 9.699-0.454 12.316 8.146 15.551 9.7 25.865 7.56-0.01 15.1-0.01 22.63-0.01zm-16.17-35.56c-4.236-3.3-24.963-3.493-25.864 6.466 10.51-0.3 19.91-1.69 25.86-6.47zm-58.19 12.93c0.095-17.684 8.633 8.408 22.633-3.232-15.068-52.606-5.046-165.28-54.965-181.06-4.301 5.368 1.193 20.563-9.7 19.399 0.515-7.436-33.854-14.71-22.632-32.332 7.565 5.368 7.824 18.042 22.632 16.166 11.058-12.156 18.364-43.358 9.7-64.664-27.709-13.806-53.285 11.77-35.565 35.565-17.46-6.919 11.411 17.588-6.468 22.632-77.21-9.085-67.413 124.22-74.364 206.93 4.72 4.979 16.553 2.844 25.865 3.232 7.599-17.394-8.762-15.647-9.699-32.332 8.858-43.974 5.301-100.33 35.565-122.86-1.94 9.892-6.855 16.844-9.7 25.865 20.433-5.333 19.98 10.183 35.566 9.699 18.104-6.69 31.329-18.266 48.498-25.865 50.59 18.67 15.51 81.75 22.63 122.84zm-22.64-9.7c-1.749-30.554 24.345-46.202 22.633-71.131-3.139-46.267-40.191-23.084-77.598-9.699 1.002 11.768-0.485 21.051-3.234 29.099 19.559-4.171 36.148-11.281 51.733-19.399-10.735 19.434-12.516 47.82-16.166 74.364 11.23 2.59 12.46-4.81 22.64-3.23zm9.7 0c2.648-5.175 12.282-19.725 3.233-25.866 3.04 10.84-11.6 20.37-3.23 25.87zm3.24 6.47c-40.062-1.26-65.184 12.414-103.46 12.933 19.46 6.18 78.72-2.94 103.46-12.93zm9.7 29.09c-0.714-20.854-27.289-15.841-48.498-16.166 8.37 13.2 27.67 15.47 48.5 16.17zm-51.74-29.09c-4.143-23.603 7.017-48.95 3.233-61.432-6.984 9.15-21.438 10.865-38.8 9.7 2.941 25.606-20.531 41.87-16.166 58.198 12.04-7.41 32.18-6.67 51.74-6.47zm-61.43 6.46c2.132-19.207 50.34-111.39 9.699-103.46-15.91 3.1-28.71 87.85-9.7 103.46zm0 45.27v-19.4c-12.158-2.49-15.456 3.944-25.865 3.234v16.166c13.52-0.74 15.3 5.24 25.87 0zm-87.295 19.4c23.408-7.017 20.239-59.523 3.234-71.13-18.754-2.617-25.221 7.114-25.866 22.633 11.671-0.875 22.374-0.81 19.399 12.933-2.974 5.627-10.088 7.145-19.399 6.466-0.906 18.14 7.985 26.51 22.632 29.1zm-9.699-42.04c-6.466-5.207-31.588-1.551-35.565 6.467 8.438 5.24 32.526 3.82 35.565-6.47z"
  />
  <path
      id="path5"
      style="fill:#FFFFFF"
      d="m317.04 294.22c36.888-2.101 38.474 53.414 19.398 71.13h-22.632c-1.555-10.314-10.154-13.549-9.7-25.865 12.024 1.228 22.05 0.483 22.632-9.699-0.454-9.249-13.481-5.918-22.632-6.467-0.78-14.8 4.39-23.65 12.93-29.09z"
  />
  <path
      id="path7"
      style="fill:#FFFFFF"
      d="m294.41 336.25c0.901-9.959 21.628-9.766 25.864-6.466-5.95 4.79-15.35 6.18-25.86 6.47z"
  />
  <path
      id="path9"
      style="fill:#FFFFFF"
      d="m284.71 339.49c-14 11.641-22.538-14.451-22.633 3.232-7.117-41.093 27.966-104.17-22.633-122.86-17.169 7.6-30.394 19.175-48.498 25.865-15.586 0.483-15.133-15.032-35.566-9.699 2.845-9.021 7.759-15.974 9.7-25.865-30.264 22.534-26.708 78.888-35.565 122.86 0.938 16.685 17.298 14.938 9.699 32.332-9.313-0.389-21.145 1.746-25.865-3.232 6.951-82.706-2.846-216.01 74.364-206.93 17.879-5.044-10.992-29.552 6.468-22.632-17.719-23.796 7.856-49.371 35.565-35.565 8.664 21.306 1.357 52.508-9.7 64.664-14.808 1.875-15.066-10.798-22.632-16.166-11.222 17.622 23.146 24.896 22.632 32.332 10.894 1.164 5.399-14.031 9.7-19.399 49.9 15.78 39.88 128.46 54.95 181.07z"
  />
  <path
      id="path11"
      style="fill:#FFFFFF"
      d="m262.08 261.89c1.712 24.929-24.382 40.577-22.633 71.131-10.186-1.581-11.416 5.82-22.632 3.233 3.65-26.544 5.431-54.931 16.166-74.364-15.585 8.118-32.175 15.229-51.733 19.399 2.749-8.048 4.236-17.331 3.234-29.099 37.39-13.39 74.45-36.57 77.59 9.7z"
  />
  <path
      id="path13"
      style="fill:#FFFFFF"
      d="m252.38 307.15c9.049 6.142-0.585 20.691-3.233 25.866-8.38-5.5 6.26-15.03 3.23-25.87z"
  />
  <path
      id="path15"
      style="fill:#FFFFFF"
      d="m148.91 352.42c38.281-0.519 63.403-14.192 103.46-12.933-24.73 9.99-83.99 19.11-103.46 12.93z"
  />
  <path
      id="path17"
      style="fill:#FFFFFF"
      d="m213.58 352.42c21.209 0.325 47.784-4.688 48.498 16.166-20.83-0.71-40.13-2.98-48.5-16.17z"
  />
  <path
      id="path19"
      style="fill:#FFFFFF"
      d="m213.58 278.06c3.783 12.481-7.376 37.829-3.233 61.432-19.563-0.193-39.706-0.938-51.733 6.467-4.365-16.328 19.107-32.592 16.166-58.198 17.35 1.16 31.8-0.55 38.79-9.7z"
  />
  <path
      id="path21"
      d="m210.34 25.865c-1.004 4.397-8.083 2.684-12.933 3.234 0.259 13.774 5.431 22.601 3.233 38.798h-16.167c-3.622-13.611 9.992-44.456-12.933-38.798 2.36-12.739 11.84-18.364 16.17-29.099 11.38 4.785 14 18.365 22.63 25.865z"
  />
  <path
      id="path23"
      style="fill:#FFFFFF"
      d="m158.61 242.49c40.641-7.923-7.567 84.256-9.699 103.46-19.01-15.61-6.21-100.36 9.7-103.46z"
  />
  <path
      id="path25"
      style="fill:#FFFFFF"
      d="m148.91 371.82v19.4c-10.573 5.237-12.352-0.742-25.865 0v-16.166c10.42 0.71 13.71-5.72 25.87-3.23z"
  />
  <path
      id="path27"
      style="fill:#FFFFFF"
      d="m64.849 339.49c17.005 11.606 20.174 64.113-3.234 71.13-14.647-2.585-23.538-10.959-22.632-29.099 9.311 0.679 16.425-0.839 19.399-6.466 2.975-13.742-7.728-13.808-19.399-12.933 0.645-15.52 7.112-25.25 25.866-22.63z"
  />
  <path
      id="path29"
      style="fill:#FFFFFF"
      d="m16.351 375.05c3.977-8.018 29.099-11.674 35.565-6.467-3.039 10.29-27.127 11.71-35.565 6.47z"
  />
  <metadata
    >
    <rdf:RDF
      >
      <cc:Work
        >
        <dc:format
          >image/svg+xml</dc:format
        >
        <dc:type
            rdf:resource="http://purl.org/dc/dcmitype/StillImage"
        />
        <cc:license
            rdf:resource="http://creativecommons.org/licenses/publicdomain/"
        />
        <dc:publisher
          >
          <cc:Agent
              rdf:about="http://openclipart.org/"
            >
            <dc:title
              >Openclipart</dc:title
            >
          </cc:Agent
          >
        </dc:publisher
        >
        <dc:title
          >Architetto -- sport stacco 01</dc:title
        >
        <dc:date
          >2010-03-27T10:00:58</dc:date
        >
        <dc:description
          >Drawing by Francesco 'Architetto' Rollandin. From OCAL 0.18 release.</dc:description
        >
        <dc:source
          >https://openclipart.org/detail/34489/architetto----sport-stacco-01-by-anonymous</dc:source
        >
        <dc:creator
          >
          <cc:Agent
            >
            <dc:title
              >Anonymous</dc:title
            >
          </cc:Agent
          >
        </dc:creator
        >
        <dc:subject
          >
          <rdf:Bag
            >
            <rdf:li
              >activity</rdf:li
            >
            <rdf:li
              >black and white</rdf:li
            >
            <rdf:li
              >sport</rdf:li
            >
            <rdf:li
              >weightlifting</rdf:li
            >
          </rdf:Bag
          >
        </dc:subject
        >
      </cc:Work
      >
      <cc:License
          rdf:about="http://creativecommons.org/licenses/publicdomain/"
        >
        <cc:permits
            rdf:resource="http://creativecommons.org/ns#Reproduction"
        />
        <cc:permits
            rdf:resource="http://creativecommons.org/ns#Distribution"
        />
        <cc:permits
            rdf:resource="http://creativecommons.org/ns#DerivativeWorks"
        />
      </cc:License
      >
    </rdf:RDF
    >
  </metadata
  >
</svg
>
